…
ikea %>% 
  distinct(designer)
#> # A tibble: 381 x 1
#>    designer            
#>    <chr>               
#>  1 Nicholai Wiig Hansen
#>  2 Francis Cayouette   
#>  3 Henrik Preutz       
#>  4 Marcus Arvonen      
#>  5 Carina Bengs        
#>  6 K Hagberg/M Hagberg 
#>  7 Sarah Fager         
#>  8 Ehlén Johansson     
#>  9 Nike Karlsson       
#> 10 Maja Ganszyniec     
#> # … with 371 more rows

ikea %>% 
  select(designer) %>% 
  filter(str_detect(designer, "/"))
#> # A tibble: 1,327 x 1
#>    designer                       
#>    <chr>                          
#>  1 K Hagberg/M Hagberg            
#>  2 K Hagberg/M Hagberg            
#>  3 K Hagberg/M Hagberg            
#>  4 John/Jonas/Petrus/Paul/Caroline
#>  5 K Hagberg/M Hagberg            
#>  6 John/Jonas/Petrus/Paul/Caroline
#>  7 Nike Karlsson/Maja Ganszyniec  
#>  8 J Karlsson/N Karlsson          
#>  9 IKEA of Sweden/Karl Malmvall   
#> 10 J Karlsson/N Karlsson          
#> # … with 1,317 more rows

ikea %>% 
  mutate(n_designers = str_count(designer, "/") + 1L,
         .keep = "used") %>% 
  arrange(-n_designers)
#> # A tibble: 3,694 x 2
#>    designer                                                  n_designers
#>    <chr>                                                           <int>
#>  1 IKEA of Sweden/John/Jonas/Petrus/Paul/Caroline/David Wahl           7
#>  2 K Hagberg/M Hagberg/John/Jonas/Petrus/Paul/Caroline                 7
#>  3 David Wahl/IKEA of Sweden/John/Jonas/Petrus/Paul/Caroline           7
#>  4 David Wahl/IKEA of Sweden/John/Jonas/Petrus/Paul/Caroline           7
#>  5 K Hagberg/M Hagberg/John/Jonas/Petrus/Paul/Caroline                 7
#>  6 IKEA of Sweden/John/Jonas/Petrus/Paul/Caroline/David Wahl           7
#>  7 Jon Karlsson/John/Jonas/Petrus/Paul/Caroline                        6
#>  8 David Wahl/John/Jonas/Petrus/Paul/Caroline                          6
#>  9 John/Jonas/Petrus/Paul/Caroline/Lisa Norinder                       6
#> 10 Lisa Norinder/John/Jonas/Petrus/Paul/Caroline                       6
#> # … with 3,684 more rows
…
