…
dev.off()
#> png 
#>   2

mobile_anim <- image_animate(mobile_img, fps = 2)
print(mobile_anim)
#> # A tibble: 28 x 7
#>    format width height colorspace matte filesize density
#>    <chr>  <int>  <int> <chr>      <lgl>    <int> <chr>  
#>  1 gif      875    600 sRGB       TRUE         0 +96x+96
#>  2 gif      875    600 sRGB       TRUE         0 +96x+96
#>  3 gif      875    600 sRGB       TRUE         0 +96x+96
#>  4 gif      875    600 sRGB       TRUE         0 +96x+96
#>  5 gif      875    600 sRGB       TRUE         0 +96x+96
#>  6 gif      875    600 sRGB       TRUE         0 +96x+96
#>  7 gif      875    600 sRGB       TRUE         0 +96x+96
#>  8 gif      875    600 sRGB       TRUE         0 +96x+96
#>  9 gif      875    600 sRGB       TRUE         0 +96x+96
#> 10 gif      875    600 sRGB       TRUE         0 +96x+96
#> # … with 18 more rows
```
…
