…
<img src="figs/reg-lines-1.png" width="672" />

``` r
datasaurus_lm <- datasaurus %>% 
  nest(data = -dataset) %>% 
  mutate(model = map(data, ~ lm(y ~ x, data = .x)),
         coefs = map(model, broom::tidy)) %>% 
  unnest(coefs)

datasaurus_lm
#> # A tibble: 26 x 8
#>    dataset data            model term      estimate std.error statistic  p.value
#>    <chr>   <list>          <lis> <chr>        <dbl>     <dbl>     <dbl>    <dbl>
#>  1 dino    <tibble [142 ×… <lm>  (Interce…  53.5        7.69      6.95  1.29e-10
#>  2 dino    <tibble [142 ×… <lm>  x          -0.104      0.136    -0.764 4.46e- 1
#>  3 away    <tibble [142 ×… <lm>  (Interce…  53.4        7.69      6.94  1.31e-10
#>  4 away    <tibble [142 ×… <lm>  x          -0.103      0.135    -0.760 4.48e- 1
#>  5 h_lines <tibble [142 ×… <lm>  (Interce…  53.2        7.70      6.91  1.53e-10
#>  6 h_lines <tibble [142 ×… <lm>  x          -0.0992     0.136    -0.732 4.66e- 1
#>  7 v_lines <tibble [142 ×… <lm>  (Interce…  53.9        7.69      7.01  9.38e-11
#>  8 v_lines <tibble [142 ×… <lm>  x          -0.112      0.135    -0.824 4.12e- 1
#>  9 x_shape <tibble [142 ×… <lm>  (Interce…  53.6        7.69      6.97  1.17e-10
#> 10 x_shape <tibble [142 ×… <lm>  x          -0.105      0.135    -0.778 4.38e- 1
#> # … with 16 more rows
```
…
