…
bechdel_long <- bechdel %>%
  mutate(n_genres = map_int(genre, length)) %>%
  filter(n_genres > 0) %>%
  distinct(year, title, rating, .keep_all = TRUE) %>%
  select(-n_genres) %>%
  unnest(genre)

bechdel_long %>%
  count(genre) %>%
  arrange(n)
#> # A tibble: 27 x 2
#>    genre           n
#>    <chr>       <int>
#>  1 Game-Show       1
#>  2 Adult           3
#>  3 N/A             5
#>  4 News            8
#>  5 Film-Noir      68
#>  6 Documentary    98
#>  7 Short         121
#>  8 Western       139
#>  9 Sport         185
#> 10 Music         323
#> # … with 17 more rows
```
…
